{
    "cursor": "#AD83E9",
    "number": "#CCCCCC",
    "parens": "#F5BDE6",
    "result": "#A6DA95",
    "comment": "#888888",
    "matched": "#AD83E9",
    "function": "#ED8796",
    "operator": "#8AADF4",
    "variable": "#56DA95",
    "scrollbar": "#666A77",
    "separator": "#F5BDE6",
    "background": "#24273A",
    "editorbackground": "#1E1E2E"
}
